<?xml version="1.0" encoding="UTF-8" standalone="no"?>
<svg
   width="808.21014"
   height="241.69"
   viewBox="0 0 808.21014 241.69"
   fill="none"
   version="1.1"
   id="svg392"
   sodipodi:docname="devpt.svg"
   inkscape:version="1.2.2 (b0a8486541, 2022-12-01)"
   xmlns:inkscape="http://www.inkscape.org/namespaces/inkscape"
   xmlns:sodipodi="http://sodipodi.sourceforge.net/DTD/sodipodi-0.dtd"
   xmlns="http://www.w3.org/2000/svg"
   xmlns:svg="http://www.w3.org/2000/svg">
  <sodipodi:namedview
     id="namedview394"
     pagecolor="#ffffff"
     bordercolor="#666666"
     borderopacity="1.0"
     inkscape:showpageshadow="2"
     inkscape:pageopacity="0.0"
     inkscape:pagecheckerboard="0"
     inkscape:deskcolor="#d1d1d1"
     showgrid="false"
     inkscape:zoom="0.65397536"
     inkscape:cx="110.09589"
     inkscape:cy="38.22774"
     inkscape:window-width="1920"
     inkscape:window-height="1055"
     inkscape:window-x="0"
     inkscape:window-y="0"
     inkscape:window-maximized="1"
     inkscape:current-layer="svg392" />
  <path
     d="m 101.01013,39.49 c 23.071,0.0437 45.435,7.97 63.384,22.466 17.949,14.495 30.406,34.689 35.306,57.234 l -60.85,21.51 c 0,-10.033 -3.986,-19.655 -11.08,-26.75 -7.095,-7.094 -16.717,-11.08 -26.75,-11.08 -10.033004,0 -19.655004,3.986 -26.750004,11.08 -7.094,7.095 -11.08,16.717 -11.08,26.75 H 1.2635131e-4 C -0.02087365,127.42 2.5760264,114.266 7.6423264,101.99 12.708626,89.714 20.145026,78.557 29.526226,69.158 c 9.3812,-9.4 20.5233,-16.859 32.7889,-21.949 12.266,-5.0909 25.415,-7.7138 38.695004,-7.719 z"
     fill="url(#paint0_radial)"
     id="path280"
     style="fill:url(#paint0_radial)" />
  <path
     d="m 63.190126,140.7 c 0,10.033 3.986,19.655 11.08,26.75 7.095,7.094 16.717,11.08 26.750004,11.08 10.033,0 19.655,-3.986 26.75,-11.08 7.094,-7.095 11.08,-16.717 11.08,-26.75 v -109 l 31.47,-31.7 31.71,31.69 v 109 c 0,26.787 -10.641,52.477 -29.582,71.418 -18.941,18.941 -44.631,29.582 -71.418,29.582 -26.787004,0 -52.476604,-10.641 -71.417804,-29.582 C 10.671126,193.167 0.03012635,167.477 0.03012635,140.69 Z"
     fill="url(#paint1_linear)"
     id="path282"
     style="fill:url(#paint1_linear)" />
  <path
     d="m 323.61013,188.83 c -8.707,6.053 -20.3,9.083 -34.78,9.09 h -50 V 33.08 h 50 c 14.34,0 26.073,3.2367 35.2,9.71 9.88,7.1 14.827,17.057 14.84,29.87 v 86.6 c 0.1,5.736 -1.118,11.419 -3.56,16.61 l -0.1,0.32 c -2.774,5.068 -6.716,9.401 -11.5,12.64 z m -54,-132.88 v 119 h 19.22 c 6.61,0 11.32,-1 14.1,-2.92 3.413,-2.233 5.12,-6.483 5.12,-12.75 V 72.66 c 0,-6.26 -1.777,-10.717 -5.33,-13.37 l -0.1,-0.1 c -2.927,-2.16 -7.523,-3.24 -13.79,-3.24 z"
     fill="white"
     id="path284"
     style="fill:#343434;fill-opacity:1" />
  <path
     d="m 444.61013,174.93 v 23 h -86.95 V 33.08 h 86.95 v 22.87 h -56.12 v 45.86 h 38.64 v 23 h -38.64 v 50.14 z"
     fill="white"
     id="path286"
     style="fill:#343434;fill-opacity:1" />
  <path
     d="m 537.76013,197.92 h -31.55 l -42.83,-164.84 h 31.34 l 27.26,119.92 27.27,-119.92 h 31.23 z"
     fill="white"
     id="path288"
     style="fill:#343434;fill-opacity:1" />
  <path
     d="m 630.10013,130.54 v 67.38 h -30.82 V 33.08 h 50 c 14.267,0 26.003,3.2367 35.21,9.71 9.813,7.1 14.72,17.057 14.72,29.87 v 18.29 c 0,12.947 -4.947,22.973 -14.84,30.08 -8.9,6.34 -20.597,9.51 -35.09,9.51 z m 0,-74.59 v 51.71 h 19.22 c 6.187,0 10.783,-1.113 13.79,-3.34 3.62,-2.513 5.43,-6.97 5.43,-13.37 V 72.66 c 0,-6.26 -1.773,-10.717 -5.32,-13.37 l -0.11,-0.1 c -3,-2.16 -7.597,-3.24 -13.79,-3.24 z"
     fill="#0796ce"
     id="path290" />
  <path
     d="M 707.61013,55.95 V 33.08 h 100.6 v 22.87 h -35 v 142 h -30.7 v -142 z"
     fill="#0796ce"
     id="path292" />
  <path
     d="m 369.38013,216.26 c 0.552,0.39 0.997,0.912 1.296,1.518 0.299,0.606 0.441,1.277 0.414,1.952 v 1 h -2.48 v -1 c 0.043,-0.483 -0.032,-0.969 -0.219,-1.417 -0.186,-0.447 -0.478,-0.843 -0.851,-1.153 -0.736,-0.456 -1.596,-0.669 -2.46,-0.61 -0.851,-0.06 -1.699,0.154 -2.42,0.61 -0.38,0.306 -0.68,0.7 -0.873,1.148 -0.194,0.447 -0.275,0.936 -0.237,1.422 v 12.38 c -0.04,0.488 0.041,0.978 0.234,1.428 0.194,0.45 0.494,0.845 0.876,1.152 0.724,0.449 1.57,0.662 2.42,0.61 0.863,0.054 1.722,-0.159 2.46,-0.61 0.374,-0.311 0.667,-0.708 0.854,-1.158 0.186,-0.449 0.26,-0.937 0.216,-1.422 v -1.88 h 2.53 v 1.88 c 0.028,0.677 -0.114,1.35 -0.413,1.957 -0.298,0.608 -0.744,1.132 -1.297,1.523 -1.294,0.829 -2.815,1.231 -4.35,1.15 -1.536,0.065 -3.056,-0.336 -4.36,-1.15 -0.546,-0.398 -0.987,-0.922 -1.285,-1.529 -0.298,-0.606 -0.444,-1.276 -0.425,-1.951 v -12.38 c -0.016,-0.673 0.132,-1.341 0.429,-1.945 0.298,-0.604 0.737,-1.127 1.281,-1.525 1.307,-0.806 2.825,-1.203 4.36,-1.14 1.516,-0.069 3.017,0.329 4.3,1.14 z"
     fill="white"
     id="path294"
     style="fill:#343434;fill-opacity:1" />
  <path
     d="m 385.81013,219.73 v 12.38 c 0.028,0.676 -0.113,1.348 -0.41,1.955 -0.296,0.608 -0.74,1.132 -1.29,1.525 -1.328,0.754 -2.828,1.15 -4.355,1.15 -1.527,0 -3.027,-0.396 -4.355,-1.15 -0.553,-0.391 -0.999,-0.915 -1.297,-1.523 -0.299,-0.607 -0.441,-1.28 -0.413,-1.957 v -12.38 c -0.027,-0.675 0.115,-1.346 0.414,-1.952 0.299,-0.606 0.744,-1.128 1.296,-1.518 1.33,-0.747 2.83,-1.14 4.355,-1.14 1.525,0 3.025,0.393 4.355,1.14 0.549,0.392 0.991,0.915 1.288,1.52 0.297,0.606 0.438,1.276 0.412,1.95 z m -2.53,12.38 v -12.38 c 0.045,-0.487 -0.033,-0.978 -0.227,-1.427 -0.194,-0.449 -0.498,-0.842 -0.883,-1.143 -0.719,-0.46 -1.569,-0.674 -2.42,-0.61 -0.854,-0.054 -1.703,0.159 -2.43,0.61 -0.378,0.307 -0.676,0.701 -0.868,1.149 -0.191,0.448 -0.271,0.936 -0.232,1.421 v 12.38 c -0.038,0.489 0.044,0.98 0.239,1.429 0.195,0.45 0.498,0.845 0.881,1.151 0.721,0.448 1.563,0.661 2.41,0.61 0.851,0.06 1.699,-0.154 2.42,-0.61 0.386,-0.303 0.69,-0.698 0.884,-1.148 0.194,-0.451 0.272,-0.943 0.226,-1.432 z"
     fill="white"
     id="path296"
     style="fill:#343434;fill-opacity:1" />
  <path
     d="m 402.54013,215.36 h 0.89 l 2.91,21.09 h -2.52 l -1.7,-15.22 -4.46,11.53 h -1.14 l -4.46,-11.53 -1.7,15.22 h -2.52 l 2.91,-21.09 h 0.91 l 5.47,13.74 z"
     fill="white"
     id="path298"
     style="fill:#343434;fill-opacity:1" />
  <path
     d="m 410.07013,235.59 c -0.55,-0.393 -0.994,-0.917 -1.29,-1.525 -0.297,-0.607 -0.438,-1.279 -0.41,-1.955 v -16.75 h 2.53 v 16.73 c -0.05,0.485 0.022,0.975 0.209,1.425 0.187,0.451 0.483,0.847 0.861,1.155 0.738,0.451 1.597,0.664 2.46,0.61 0.847,0.051 1.689,-0.162 2.41,-0.61 0.383,-0.306 0.686,-0.701 0.881,-1.151 0.195,-0.449 0.277,-0.94 0.239,-1.429 v -16.73 h 2.53 v 16.73 c 0.017,0.675 -0.129,1.344 -0.427,1.95 -0.298,0.606 -0.738,1.131 -1.283,1.53 -1.301,0.813 -2.817,1.214 -4.35,1.15 -1.536,0.088 -3.06,-0.307 -4.36,-1.13 z"
     fill="white"
     id="path300"
     style="fill:#343434;fill-opacity:1" />
  <path
     d="m 425.61013,221.82 v 14.65 h -2.53 v -21.11 h 1 l 9,14.61 v -14.61 h 2.53 v 21.09 h -1 z"
     fill="white"
     id="path302"
     style="fill:#343434;fill-opacity:1" />
  <path
     d="m 438.24013,236.47 v -21.11 h 2.53 v 21.09 z"
     fill="white"
     id="path304"
     style="fill:#343434;fill-opacity:1" />
  <path
     d="m 455.48013,231.99 c 0.014,0.661 -0.119,1.317 -0.39,1.92 -0.318,0.584 -0.771,1.085 -1.32,1.46 v 0 c -1.298,0.799 -2.808,1.183 -4.33,1.1 h -6.06 v -21.11 h 6.06 c 1.544,-0.073 3.072,0.34 4.37,1.18 0.544,0.386 0.982,0.902 1.276,1.502 0.293,0.599 0.432,1.262 0.404,1.928 z m -2.52,0 v -12 c 0.036,-0.479 -0.043,-0.96 -0.231,-1.402 -0.187,-0.442 -0.479,-0.832 -0.849,-1.138 v 0 c -0.721,-0.456 -1.569,-0.67 -2.42,-0.61 h -3.53 v 18.23 h 3.53 c 0.856,0.068 1.712,-0.131 2.45,-0.57 0.375,-0.293 0.669,-0.678 0.853,-1.118 0.184,-0.439 0.252,-0.919 0.197,-1.392 z"
     fill="white"
     id="path306"
     style="fill:#343434;fill-opacity:1" />
  <path
     d="m 468.51013,236.47 -0.86,-3.69 h -7.21 l -0.85,3.69 h -2.52 l 5.47,-21.11 h 3 l 5.47,21.09 z m -7.75,-5.11 h 6.58 l -3.3,-14.49 z"
     fill="white"
     id="path308"
     style="fill:#343434;fill-opacity:1" />
  <path
     d="m 485.74013,231.99 c 0.014,0.661 -0.119,1.317 -0.39,1.92 -0.314,0.584 -0.763,1.084 -1.31,1.46 v 0 c -1.294,0.798 -2.802,1.182 -4.32,1.1 h -6.11 v -21.11 h 6.06 c 1.544,-0.071 3.072,0.342 4.37,1.18 0.542,0.387 0.979,0.904 1.27,1.503 0.292,0.599 0.429,1.261 0.4,1.927 z m -2.51,0 v -12 c 0.035,-0.48 -0.045,-0.961 -0.235,-1.403 -0.19,-0.442 -0.483,-0.832 -0.855,-1.137 -0.718,-0.454 -1.562,-0.668 -2.41,-0.61 h -3.53 v 18.23 h 3.53 c 0.853,0.068 1.706,-0.131 2.44,-0.57 0.377,-0.293 0.672,-0.677 0.857,-1.117 0.186,-0.439 0.256,-0.919 0.203,-1.393 z"
     fill="white"
     id="path310"
     style="fill:#343434;fill-opacity:1" />
  <path
     d="m 498.61013,235.04 v 1.43 h -10.3 v -21.11 h 10.3 v 1.43 h -7.79 v 8.1 h 5.37 v 1.47 h -5.37 v 8.7 z"
     fill="white"
     id="path312"
     style="fill:#343434;fill-opacity:1" />
  <path
     d="m 519.99013,231.99 c 0.011,0.662 -0.126,1.318 -0.4,1.92 -0.311,0.586 -0.761,1.087 -1.31,1.46 v 0 c -1.294,0.798 -2.802,1.182 -4.32,1.1 h -6.06 v -21.11 h 6.06 c 1.544,-0.071 3.071,0.342 4.37,1.18 0.544,0.386 0.982,0.902 1.276,1.502 0.293,0.599 0.432,1.262 0.404,1.928 z m -2.52,0 v -12 c 0.035,-0.48 -0.045,-0.961 -0.235,-1.403 -0.19,-0.442 -0.483,-0.832 -0.855,-1.137 -0.718,-0.454 -1.562,-0.668 -2.41,-0.61 h -3.56 v 18.23 h 3.53 c 0.853,0.068 1.706,-0.131 2.44,-0.57 0.383,-0.288 0.686,-0.671 0.877,-1.111 0.191,-0.44 0.264,-0.922 0.213,-1.399 z"
     fill="white"
     id="path314"
     style="fill:#343434;fill-opacity:1" />
  <path
     d="m 532.89013,235.04 v 1.43 h -10.28 v -21.11 h 10.3 v 1.43 h -7.8 v 8.1 h 5.36 v 1.47 h -5.36 v 8.7 z"
     fill="white"
     id="path316"
     style="fill:#343434;fill-opacity:1" />
  <path
     d="m 543.98013,236.47 h -3 l -5.49,-21.11 h 2.5 l 4.49,19.66 4.47,-19.66 h 2.5 z"
     fill="white"
     id="path318"
     style="fill:#343434;fill-opacity:1" />
  <path
     d="m 562.36013,235.04 v 1.43 h -10.3 v -21.11 h 10.3 v 1.43 h -7.75 v 8.1 h 5.37 v 1.47 h -5.37 v 8.7 z"
     fill="white"
     id="path320"
     style="fill:#343434;fill-opacity:1" />
  <path
     d="m 575.26013,235.04 v 1.43 h -10.3 v -21.11 h 2.52 v 19.66 z"
     fill="white"
     id="path322"
     style="fill:#343434;fill-opacity:1" />
  <path
     d="m 588.68013,219.73 v 12.38 c 0.028,0.676 -0.113,1.348 -0.41,1.955 -0.296,0.608 -0.74,1.132 -1.29,1.525 -1.328,0.754 -2.828,1.15 -4.355,1.15 -1.527,0 -3.027,-0.396 -4.355,-1.15 -0.553,-0.391 -0.999,-0.915 -1.297,-1.523 -0.299,-0.607 -0.441,-1.28 -0.413,-1.957 v -12.38 c -0.027,-0.675 0.115,-1.346 0.414,-1.952 0.299,-0.606 0.744,-1.128 1.296,-1.518 1.33,-0.747 2.83,-1.14 4.355,-1.14 1.525,0 3.025,0.393 4.355,1.14 0.549,0.392 0.991,0.915 1.288,1.52 0.297,0.606 0.438,1.276 0.412,1.95 z m -2.53,12.38 v -12.38 c 0.045,-0.487 -0.033,-0.978 -0.227,-1.427 -0.194,-0.449 -0.498,-0.842 -0.883,-1.143 -0.719,-0.46 -1.569,-0.674 -2.42,-0.61 -0.854,-0.054 -1.703,0.159 -2.43,0.61 -0.378,0.307 -0.676,0.701 -0.868,1.149 -0.191,0.448 -0.271,0.936 -0.232,1.421 v 12.38 c -0.038,0.489 0.044,0.98 0.239,1.429 0.195,0.45 0.498,0.845 0.881,1.151 0.721,0.448 1.563,0.661 2.41,0.61 0.851,0.06 1.699,-0.154 2.42,-0.61 0.386,-0.303 0.69,-0.698 0.884,-1.148 0.194,-0.451 0.272,-0.943 0.226,-1.432 z"
     fill="white"
     id="path324"
     style="fill:#343434;fill-opacity:1" />
  <path
     d="m 603.41013,222.52 c 0.038,0.675 -0.1,1.349 -0.4,1.955 -0.299,0.606 -0.751,1.125 -1.31,1.505 -1.293,0.832 -2.814,1.238 -4.35,1.16 h -3.53 v 9.33 h -2.53 v -21.11 h 6.06 c 1.544,-0.071 3.072,0.342 4.37,1.18 0.55,0.381 0.993,0.896 1.289,1.496 0.296,0.6 0.434,1.266 0.401,1.934 z m -2.53,0 v -2.53 c 0.035,-0.48 -0.045,-0.961 -0.235,-1.403 -0.19,-0.442 -0.483,-0.832 -0.855,-1.137 -0.718,-0.454 -1.562,-0.668 -2.41,-0.61 h -3.53 v 8.9 h 3.53 c 0.847,0.051 1.689,-0.162 2.41,-0.61 0.382,-0.312 0.682,-0.713 0.872,-1.168 0.19,-0.456 0.265,-0.951 0.218,-1.442 z"
     fill="white"
     id="path326"
     style="fill:#343434;fill-opacity:1" />
  <path
     d="m 616.31013,235.04 v 1.43 h -10.3 v -21.11 h 10.3 v 1.43 h -7.78 v 8.1 h 5.37 v 1.47 h -5.37 v 8.7 z"
     fill="white"
     id="path328"
     style="fill:#343434;fill-opacity:1" />
  <path
     d="m 629.35013,216.56 c 0.55,0.381 0.993,0.896 1.289,1.496 0.296,0.6 0.434,1.266 0.401,1.934 v 2.5 c 0.032,0.672 -0.106,1.342 -0.401,1.947 -0.296,0.605 -0.739,1.125 -1.289,1.513 -0.158,0.129 -0.333,0.237 -0.52,0.32 l -0.79,0.4 2.59,9.77 h -2.54 l -2.48,-9.33 h -4.12 v 9.36 h -2.53 v -21.11 h 6.06 c 1.538,-0.073 3.06,0.34 4.35,1.18 z m -0.84,5.93 v -2.5 c 0.035,-0.48 -0.045,-0.961 -0.235,-1.403 -0.19,-0.442 -0.483,-0.832 -0.855,-1.137 -0.718,-0.454 -1.562,-0.668 -2.41,-0.61 h -3.53 v 8.87 h 3.53 c 0.849,0.055 1.693,-0.162 2.41,-0.62 0.386,-0.307 0.688,-0.706 0.878,-1.16 0.191,-0.455 0.264,-0.95 0.212,-1.44 z"
     fill="white"
     id="path330"
     style="fill:#343434;fill-opacity:1" />
  <path
     d="m 644.06013,216.26 c 0.552,0.39 0.997,0.912 1.296,1.518 0.299,0.606 0.441,1.277 0.414,1.952 v 0.91 h -2.54 v -0.91 c 0.045,-0.487 -0.033,-0.978 -0.227,-1.427 -0.194,-0.449 -0.498,-0.842 -0.883,-1.143 -0.719,-0.46 -1.569,-0.674 -2.42,-0.61 -0.848,-0.058 -1.692,0.156 -2.41,0.61 -0.382,0.305 -0.683,0.698 -0.879,1.146 -0.195,0.448 -0.278,0.937 -0.241,1.424 v 0.57 c 0.011,0.362 0.064,0.721 0.16,1.07 0.129,0.448 0.339,0.868 0.62,1.24 0.365,0.48 0.808,0.896 1.31,1.23 0.592,0.337 1.206,0.631 1.84,0.88 1.012,0.382 1.986,0.857 2.91,1.42 0.799,0.451 1.469,1.1 1.945,1.885 0.476,0.784 0.743,1.678 0.775,2.595 v 1.46 c 0.028,0.677 -0.114,1.35 -0.413,1.957 -0.298,0.608 -0.744,1.132 -1.297,1.523 -1.328,0.754 -2.828,1.15 -4.355,1.15 -1.527,0 -3.027,-0.396 -4.355,-1.15 -0.553,-0.391 -0.999,-0.915 -1.297,-1.523 -0.299,-0.607 -0.441,-1.28 -0.413,-1.957 v -1.9 h 2.53 v 1.9 c -0.038,0.489 0.044,0.98 0.239,1.429 0.195,0.45 0.498,0.845 0.881,1.151 0.721,0.448 1.563,0.661 2.41,0.61 0.851,0.06 1.699,-0.154 2.42,-0.61 0.386,-0.303 0.69,-0.698 0.884,-1.148 0.194,-0.451 0.272,-0.943 0.226,-1.432 v -1.46 c -0.006,-0.362 -0.059,-0.722 -0.16,-1.07 -0.123,-0.45 -0.326,-0.873 -0.6,-1.25 -0.364,-0.487 -0.807,-0.909 -1.31,-1.25 v 0 c -0.09,-0.06 -0.27,-0.16 -0.56,-0.31 -0.29,-0.15 -0.76,-0.36 -1.44,-0.66 -0.965,-0.377 -1.898,-0.832 -2.79,-1.36 -0.81,-0.543 -1.493,-1.257 -2,-2.09 -0.444,-0.703 -0.676,-1.519 -0.67,-2.35 v -0.57 c -0.027,-0.675 0.115,-1.346 0.414,-1.952 0.299,-0.606 0.744,-1.128 1.296,-1.518 1.33,-0.747 2.83,-1.14 4.355,-1.14 1.525,0 3.025,0.393 4.355,1.14 z"
     fill="white"
     id="path332"
     style="fill:#343434;fill-opacity:1" />
  <path
     d="m 667.12013,222.52 c 0.038,0.675 -0.1,1.349 -0.4,1.955 -0.299,0.606 -0.751,1.125 -1.31,1.505 -1.293,0.832 -2.814,1.238 -4.35,1.16 h -3.53 v 9.33 h -2.54 v -21.11 h 6.07 c 1.541,-0.073 3.066,0.34 4.36,1.18 0.548,0.384 0.99,0.899 1.287,1.498 0.297,0.6 0.439,1.264 0.413,1.932 z m -2.54,0 v -2.53 c 0.036,-0.479 -0.043,-0.96 -0.231,-1.402 -0.187,-0.442 -0.479,-0.832 -0.849,-1.138 v 0 c -0.718,-0.454 -1.562,-0.668 -2.41,-0.61 h -3.53 v 8.9 h 3.53 c 0.847,0.051 1.689,-0.162 2.41,-0.61 0.386,-0.31 0.689,-0.71 0.883,-1.166 0.194,-0.455 0.272,-0.951 0.227,-1.444 z"
     fill="white"
     id="path334"
     style="fill:#343434;fill-opacity:1" />
  <path
     d="m 681.84013,219.73 v 12.38 c 0.028,0.676 -0.113,1.348 -0.409,1.955 -0.297,0.608 -0.741,1.132 -1.291,1.525 -1.328,0.754 -2.828,1.15 -4.355,1.15 -1.527,0 -3.027,-0.396 -4.355,-1.15 -0.553,-0.391 -0.999,-0.915 -1.297,-1.523 -0.299,-0.607 -0.441,-1.28 -0.413,-1.957 v -12.38 c -0.027,-0.675 0.115,-1.346 0.414,-1.952 0.299,-0.606 0.744,-1.128 1.296,-1.518 1.33,-0.747 2.83,-1.14 4.355,-1.14 1.525,0 3.025,0.393 4.355,1.14 0.549,0.392 0.991,0.915 1.288,1.52 0.297,0.606 0.438,1.276 0.412,1.95 z m -2.53,12.38 v -12.38 c 0.045,-0.487 -0.033,-0.978 -0.227,-1.427 -0.194,-0.449 -0.497,-0.842 -0.883,-1.143 -0.719,-0.46 -1.569,-0.674 -2.42,-0.61 -0.854,-0.054 -1.703,0.159 -2.43,0.61 -0.378,0.307 -0.676,0.701 -0.868,1.149 -0.191,0.448 -0.271,0.936 -0.232,1.421 v 12.38 c -0.038,0.489 0.044,0.98 0.239,1.429 0.195,0.45 0.498,0.845 0.881,1.151 0.721,0.448 1.563,0.661 2.41,0.61 0.851,0.06 1.699,-0.154 2.42,-0.61 0.386,-0.303 0.69,-0.698 0.884,-1.148 0.194,-0.451 0.272,-0.943 0.226,-1.432 z"
     fill="white"
     id="path336"
     style="fill:#343434;fill-opacity:1" />
  <path
     d="m 694.88013,216.56 c 0.55,0.381 0.993,0.896 1.289,1.496 0.296,0.6 0.434,1.266 0.401,1.934 v 2.5 c 0.032,0.672 -0.106,1.342 -0.401,1.947 -0.296,0.605 -0.739,1.125 -1.289,1.513 -0.158,0.129 -0.333,0.237 -0.52,0.32 l -0.79,0.4 2.59,9.77 h -2.55 l -2.47,-9.36 h -4.12 v 9.36 h -2.53 v -21.08 h 6.06 c 1.538,-0.073 3.06,0.34 4.35,1.18 z m -0.84,5.93 v -2.5 c 0.035,-0.48 -0.045,-0.961 -0.235,-1.403 -0.19,-0.442 -0.483,-0.832 -0.855,-1.137 -0.718,-0.454 -1.562,-0.668 -2.41,-0.61 h -3.53 v 8.87 h 3.53 c 0.849,0.055 1.693,-0.162 2.41,-0.62 0.386,-0.307 0.688,-0.706 0.878,-1.16 0.191,-0.455 0.264,-0.95 0.212,-1.44 z"
     fill="white"
     id="path338"
     style="fill:#343434;fill-opacity:1" />
  <path
     d="m 697.73013,216.81 v -1.45 h 12.21 v 1.43 h -4.85 v 19.66 h -2.48 v -19.64 z"
     fill="white"
     id="path340"
     style="fill:#343434;fill-opacity:1" />
  <path
     d="m 714.25013,235.59 c -0.553,-0.391 -0.999,-0.915 -1.297,-1.523 -0.299,-0.607 -0.441,-1.28 -0.413,-1.957 v -16.75 h 2.53 v 16.73 c -0.044,0.485 0.03,0.973 0.216,1.422 0.187,0.45 0.48,0.847 0.854,1.158 0.738,0.451 1.597,0.664 2.46,0.61 0.85,0.051 1.696,-0.162 2.42,-0.61 0.381,-0.307 0.682,-0.702 0.876,-1.152 0.193,-0.45 0.274,-0.94 0.234,-1.428 v -16.73 h 2.53 v 16.73 c 0.017,0.674 -0.129,1.342 -0.425,1.948 -0.296,0.605 -0.733,1.131 -1.275,1.532 -1.304,0.814 -2.824,1.215 -4.36,1.15 -1.532,0.087 -3.054,-0.308 -4.35,-1.13 z"
     fill="white"
     id="path342"
     style="fill:#343434;fill-opacity:1" />
  <path
     d="m 737.68013,216.26 c 0.552,0.39 0.997,0.912 1.296,1.518 0.299,0.606 0.441,1.277 0.414,1.952 v 1 h -2.53 v -1 c 0.043,-0.483 -0.033,-0.969 -0.219,-1.417 -0.186,-0.447 -0.478,-0.843 -0.851,-1.153 -0.753,-0.401 -1.592,-0.611 -2.445,-0.611 -0.853,0 -1.692,0.21 -2.445,0.611 -0.378,0.307 -0.676,0.701 -0.868,1.149 -0.191,0.448 -0.271,0.936 -0.232,1.421 v 12.38 c -0.04,0.488 0.041,0.978 0.234,1.428 0.194,0.45 0.494,0.845 0.876,1.152 0.724,0.448 1.57,0.661 2.42,0.61 0.863,0.054 1.722,-0.159 2.46,-0.61 0.374,-0.311 0.667,-0.708 0.854,-1.158 0.186,-0.449 0.26,-0.937 0.216,-1.422 v -5.46 h -2.38 v -1.45 h 4.91 v 6.91 c 0.028,0.677 -0.114,1.35 -0.413,1.957 -0.298,0.608 -0.744,1.132 -1.297,1.523 -1.294,0.829 -2.815,1.231 -4.35,1.15 -1.536,0.065 -3.056,-0.336 -4.36,-1.15 -0.545,-0.398 -0.985,-0.923 -1.281,-1.53 -0.296,-0.606 -0.44,-1.275 -0.419,-1.95 v -12.38 c -0.018,-0.673 0.128,-1.34 0.424,-1.944 0.296,-0.604 0.734,-1.128 1.276,-1.526 1.307,-0.806 2.825,-1.203 4.36,-1.14 1.533,-0.079 3.053,0.319 4.35,1.14 z"
     fill="white"
     id="path344"
     style="fill:#343434;fill-opacity:1" />
  <path
     d="m 743.70013,235.59 c -0.553,-0.391 -0.999,-0.915 -1.297,-1.523 -0.299,-0.607 -0.441,-1.28 -0.413,-1.957 v -16.75 h 2.53 v 16.73 c -0.044,0.485 0.03,0.973 0.216,1.422 0.187,0.45 0.48,0.847 0.854,1.158 0.738,0.451 1.597,0.664 2.46,0.61 0.85,0.051 1.696,-0.162 2.42,-0.61 0.381,-0.307 0.682,-0.702 0.876,-1.152 0.193,-0.45 0.274,-0.94 0.234,-1.428 v -16.73 h 2.53 v 16.73 c 0.019,0.674 -0.125,1.343 -0.421,1.949 -0.297,0.606 -0.735,1.132 -1.279,1.531 -1.304,0.814 -2.824,1.215 -4.36,1.15 -1.532,0.087 -3.054,-0.308 -4.35,-1.13 z"
     fill="white"
     id="path346"
     style="fill:#343434;fill-opacity:1" />
  <path
     d="m 767.02013,235.04 v 1.43 h -10.3 v -21.11 h 10.3 v 1.43 h -7.78 v 8.1 h 5.37 v 1.47 h -5.36 v 8.7 z"
     fill="white"
     id="path348"
     style="fill:#343434;fill-opacity:1" />
  <path
     d="m 778.81013,216.26 c 0.552,0.39 0.997,0.912 1.296,1.518 0.299,0.606 0.441,1.277 0.414,1.952 v 0.91 h -2.54 v -0.91 c 0.045,-0.487 -0.033,-0.978 -0.227,-1.427 -0.194,-0.449 -0.498,-0.842 -0.883,-1.143 -0.719,-0.46 -1.569,-0.674 -2.42,-0.61 -0.848,-0.058 -1.692,0.156 -2.41,0.61 -0.382,0.305 -0.683,0.698 -0.879,1.146 -0.195,0.448 -0.278,0.937 -0.241,1.424 v 0.57 c 0.011,0.362 0.064,0.721 0.16,1.07 0.129,0.448 0.339,0.868 0.62,1.24 0.365,0.48 0.808,0.896 1.31,1.23 v 0 c 0.592,0.337 1.206,0.631 1.84,0.88 1.012,0.382 1.986,0.857 2.91,1.42 0.799,0.451 1.469,1.1 1.945,1.885 0.476,0.784 0.743,1.678 0.775,2.595 v 1.46 c 0.028,0.677 -0.114,1.35 -0.413,1.957 -0.298,0.608 -0.744,1.132 -1.297,1.523 -1.328,0.754 -2.828,1.15 -4.355,1.15 -1.527,0 -3.027,-0.396 -4.355,-1.15 -0.553,-0.391 -0.999,-0.915 -1.297,-1.523 -0.299,-0.607 -0.441,-1.28 -0.413,-1.957 v -1.9 h 2.53 v 1.9 c -0.038,0.489 0.044,0.98 0.239,1.429 0.195,0.45 0.498,0.845 0.881,1.151 0.721,0.448 1.563,0.661 2.41,0.61 0.851,0.06 1.699,-0.154 2.42,-0.61 0.386,-0.303 0.69,-0.698 0.884,-1.148 0.194,-0.451 0.272,-0.943 0.226,-1.432 v -1.46 c -0.006,-0.362 -0.059,-0.722 -0.16,-1.07 -0.123,-0.45 -0.326,-0.873 -0.6,-1.25 -0.364,-0.487 -0.807,-0.909 -1.31,-1.25 v 0 c -0.09,-0.06 -0.27,-0.16 -0.56,-0.31 -0.29,-0.15 -0.76,-0.36 -1.44,-0.66 -0.965,-0.377 -1.898,-0.832 -2.79,-1.36 -0.81,-0.543 -1.493,-1.257 -2,-2.09 -0.444,-0.703 -0.676,-1.519 -0.67,-2.35 v -0.57 c -0.027,-0.675 0.115,-1.346 0.414,-1.952 0.299,-0.606 0.744,-1.128 1.296,-1.518 1.33,-0.747 2.83,-1.14 4.355,-1.14 1.525,0 3.025,0.393 4.355,1.14 z"
     fill="white"
     id="path350"
     style="fill:#343434;fill-opacity:1" />
  <path
     d="m 793.42013,235.04 v 1.43 h -10.3 v -21.11 h 10.3 v 1.43 h -7.81 v 8.1 h 5.36 v 1.47 h -5.36 v 8.7 z"
     fill="white"
     id="path352"
     style="fill:#343434;fill-opacity:1" />
  <path
     d="m 805.21013,216.26 c 0.552,0.39 0.997,0.912 1.296,1.518 0.299,0.606 0.441,1.277 0.414,1.952 v 0.91 h -2.54 v -0.91 c 0.045,-0.487 -0.033,-0.978 -0.227,-1.427 -0.194,-0.449 -0.498,-0.842 -0.883,-1.143 -0.719,-0.46 -1.569,-0.674 -2.42,-0.61 -0.848,-0.058 -1.692,0.156 -2.41,0.61 -0.382,0.305 -0.683,0.698 -0.879,1.146 -0.195,0.448 -0.278,0.937 -0.241,1.424 v 0.57 c 0.011,0.362 0.064,0.721 0.16,1.07 0.129,0.448 0.339,0.868 0.62,1.24 0.365,0.48 0.808,0.896 1.31,1.23 v 0 c 0.592,0.337 1.207,0.631 1.84,0.88 1.013,0.379 1.988,0.855 2.91,1.42 0.799,0.451 1.469,1.1 1.945,1.885 0.476,0.784 0.743,1.678 0.775,2.595 v 1.46 c 0.028,0.677 -0.114,1.35 -0.413,1.957 -0.298,0.608 -0.744,1.132 -1.297,1.523 -1.328,0.754 -2.828,1.15 -4.355,1.15 -1.527,0 -3.027,-0.396 -4.355,-1.15 -0.553,-0.391 -0.999,-0.915 -1.297,-1.523 -0.299,-0.607 -0.441,-1.28 -0.413,-1.957 v -1.9 h 2.53 v 1.9 c -0.038,0.489 0.044,0.98 0.239,1.429 0.195,0.45 0.498,0.845 0.881,1.151 0.721,0.448 1.563,0.661 2.41,0.61 0.851,0.06 1.699,-0.154 2.42,-0.61 0.386,-0.303 0.69,-0.698 0.884,-1.148 0.194,-0.451 0.272,-0.943 0.226,-1.432 v -1.46 c -0.006,-0.362 -0.059,-0.722 -0.16,-1.07 -0.12,-0.427 -0.313,-0.829 -0.57,-1.19 -0.363,-0.484 -0.802,-0.907 -1.3,-1.25 -0.09,-0.06 -0.27,-0.16 -0.56,-0.31 -0.29,-0.15 -0.76,-0.36 -1.44,-0.66 -0.965,-0.377 -1.898,-0.832 -2.79,-1.36 -0.81,-0.543 -1.493,-1.257 -2,-2.09 -0.444,-0.703 -0.676,-1.519 -0.67,-2.35 v -0.57 c -0.027,-0.675 0.115,-1.346 0.414,-1.952 0.299,-0.606 0.744,-1.128 1.296,-1.518 1.33,-0.747 2.83,-1.14 4.355,-1.14 1.525,0 3.025,0.393 4.355,1.14 z"
     fill="white"
     id="path354"
     style="fill:#343434;fill-opacity:1" />
  <defs
     id="defs390">
    <radialGradient
       id="paint0_radial"
       cx="0"
       cy="0"
       r="1"
       gradientUnits="userSpaceOnUse"
       gradientTransform="matrix(-79.16,0,0,-79.16,99.840126,90.1)">
      <stop
         offset="0.33"
         stop-color="#326FB6"
         id="stop356" />
      <stop
         offset="0.52"
         stop-color="#2F6DB4"
         id="stop358" />
      <stop
         offset="0.68"
         stop-color="#2466AC"
         id="stop360" />
      <stop
         offset="0.83"
         stop-color="#135BA0"
         id="stop362" />
      <stop
         offset="0.94"
         stop-color="#025094"
         id="stop364" />
    </radialGradient>
    <linearGradient
       id="paint1_linear"
       x1="244.42"
       y1="174.5"
       x2="42.389999"
       y2="174.5"
       gradientUnits="userSpaceOnUse"
       gradientTransform="translate(-42.389874,-53.64)">
      <stop
         stop-color="#326FB6"
         id="stop367" />
      <stop
         offset="0.05"
         stop-color="#3A80C2"
         id="stop369" />
      <stop
         offset="0.14"
         stop-color="#4396D1"
         id="stop371" />
      <stop
         offset="0.23"
         stop-color="#4AA5DC"
         id="stop373" />
      <stop
         offset="0.34"
         stop-color="#4EAEE2"
         id="stop375" />
      <stop
         offset="0.49"
         stop-color="#4FB1E4"
         id="stop377" />
      <stop
         offset="0.68"
         stop-color="#4EAFE2"
         id="stop379" />
      <stop
         offset="0.79"
         stop-color="#4AA7DD"
         id="stop381" />
      <stop
         offset="0.87"
         stop-color="#4499D3"
         id="stop383" />
      <stop
         offset="0.94"
         stop-color="#3C86C6"
         id="stop385" />
      <stop
         offset="1"
         stop-color="#326FB6"
         id="stop387" />
    </linearGradient>
  </defs>
</svg>
